<?xml version="1.0" encoding="UTF-8" standalone="no"?>
<!-- Created with Inkscape (http://www.inkscape.org/) -->

<svg
   xmlns:dc="http://purl.org/dc/elements/1.1/"
   xmlns:cc="http://creativecommons.org/ns#"
   xmlns:rdf="http://www.w3.org/1999/02/22-rdf-syntax-ns#"
   xmlns:svg="http://www.w3.org/2000/svg"
   xmlns="http://www.w3.org/2000/svg"
   xmlns:sodipodi="http://sodipodi.sourceforge.net/DTD/sodipodi-0.dtd"
   xmlns:inkscape="http://www.inkscape.org/namespaces/inkscape"
   version="1.0"
   width="500"
   height="500"
   id="svg2"
   inkscape:version="0.47 r22583"
   sodipodi:docname="Syndicalism.svg">
  <metadata
     id="metadata11">
    <rdf:RDF>
      <cc:Work
         rdf:about="">
        <dc:format>image/svg+xml</dc:format>
        <dc:type
           rdf:resource="http://purl.org/dc/dcmitype/StillImage" />
      </cc:Work>
    </rdf:RDF>
  </metadata>
  <sodipodi:namedview
     pagecolor="#ffffff"
     bordercolor="#666666"
     borderopacity="1"
     objecttolerance="10"
     gridtolerance="10"
     guidetolerance="10"
     inkscape:pageopacity="0"
     inkscape:pageshadow="2"
     inkscape:window-width="1280"
     inkscape:window-height="904"
     id="namedview9"
     showgrid="false"
     inkscape:zoom="0.472"
     inkscape:cx="250"
     inkscape:cy="250"
     inkscape:window-x="-4"
     inkscape:window-y="-4"
     inkscape:window-maximized="1"
     inkscape:current-layer="svg2" />
  <defs
     id="defs4">
    <inkscape:perspective
       sodipodi:type="inkscape:persp3d"
       inkscape:vp_x="0 : 250 : 1"
       inkscape:vp_y="0 : 1000 : 0"
       inkscape:vp_z="500 : 250 : 1"
       inkscape:persp3d-origin="250 : 166.66667 : 1"
       id="perspective13" />
  </defs>
  <g
     id="layer1"
     style="fill:#008000">
    <path
       d="M 391.42858 217.85715 A 97.85714 93.571426 0 1 1  195.7143,217.85715 A 97.85714 93.571426 0 1 1  391.42858 217.85715 z"
       transform="matrix(1.2142548,0,0,1.2142548,-99.012508,-31.956818)"
       style="fill:#008000;fill-rule:evenodd;stroke:none;stroke-width:1px;stroke-linecap:butt;stroke-linejoin:miter;stroke-opacity:1"
       id="path2160" />
    <path
       d="M 391.42858 217.85715 A 97.85714 93.571426 0 1 1  195.7143,217.85715 A 97.85714 93.571426 0 1 1  391.42858 217.85715 z"
       transform="matrix(0.5620437,0,0,0.5620437,-109.99999,-61.438991)"
       style="fill:#008000;fill-rule:evenodd;stroke:none;stroke-width:1px;stroke-linecap:butt;stroke-linejoin:miter;stroke-opacity:1"
       id="path3134" />
    <rect
       width="109.92234"
       height="442.2002"
       ry="0.053239305"
       x="-1.0109544e-06"
       y="58.10968"
       style="fill:#008000;fill-opacity:1;stroke:none"
       id="rect3140" />
    <path
       d="M 110.16757,252.26009 C 109.34132,320.51348 139.16974,381.51998 271.16232,383.83246 C 335.53615,385.21366 364.78869,356.57633 426.27354,378.78169 C 516.29916,424.38569 492.40791,493.65867 499.01536,502.0203 L 100.0051,500 L 110.16757,252.26009 z "
       style="fill:#008000;fill-opacity:1;fill-rule:evenodd;stroke:none;stroke-width:1px;stroke-linecap:butt;stroke-linejoin:miter;stroke-opacity:1"
       id="path4113" />
  </g>
</svg>
